{
    "/js/app.js": "/js/app.js?id=92a1c3293fb20bed17f3",
    "/css/app.css": "/css/app.css?id=832a56db213306ac740e",
    "/css/auth.css": "/css/auth.css?id=8a0f24f0d0eec59f65d3",
    "/js/app.js.map": "/js/app.js.map?id=b2046ea8e2527c59f259",
    "/css/app.css.map": "/css/app.css.map?id=e75aa3b01c5626d7dbec",
    "/css/auth.css.map": "/css/auth.css.map?id=ec070055c023f3cec52a",
    "/js/vendor.js": "/js/vendor.js?id=1dd22d0981d6330a3046",
    "/js/vendor.js.map": "/js/vendor.js.map?id=c2643acf7bea1d3247b7",
    "/js/manifest.js": "/js/manifest.js?id=d64713044d4b02b1808b",
    "/js/manifest.js.map": "/js/manifest.js.map?id=6f13ec0f569c9e5b7256"
}
